#Command: "C:\Program Files (x86)\Microsoft Visual Studio 12.0\VC\bin\x86_amd64\CL.exe" @C:\Users\davidm\AppData\Local\Temp\tmp69959d1d92194f90a6028939b865dc3e.rsp
^C:\CODE\POTS\P003_LIVEVIDEOPROCESSOR\P003_LIVEVIDEOPROCESSOR\MEDIA CAPTURE USING CAPTURE DEVICE SAMPLE\C# AND C++\MEDIAEXTENSIONS\GRAYSCALE\DLLMAIN.CPP|C:\CODE\POTS\P003_LIVEVIDEOPROCESSOR\P003_LIVEVIDEOPROCESSOR\MEDIA CAPTURE USING CAPTURE DEVICE SAMPLE\C# AND C++\MEDIAEXTENSIONS\GRAYSCALE\GRAYSCALE.CPP
C:\PROGRAM FILES (X86)\MICROSOFT VISUAL STUDIO 12.0\VC\BIN\X86_AMD64\CL.EXE
C:\USERS\DAVIDM\APPDATA\LOCAL\TEMP\TMP26D6A0421B954B17BADD522A929BC480.TMP
