^C:\CODE\POTS\P003_LIVEVIDEOPROCESSOR\P003_LIVEVIDEOPROCESSOR\MEDIA CAPTURE USING CAPTURE DEVICE SAMPLE\C# AND C++\MEDIAEXTENSIONS\GRAYSCALE\X64\DEBUG\DLLMAIN.OBJ|C:\CODE\POTS\P003_LIVEVIDEOPROCESSOR\P003_LIVEVIDEOPROCESSOR\MEDIA CAPTURE USING CAPTURE DEVICE SAMPLE\C# AND C++\MEDIAEXTENSIONS\GRAYSCALE\X64\DEBUG\GRAYSCALE.OBJ
C:\CODE\POTS\P003_LIVEVIDEOPROCESSOR\P003_LIVEVIDEOPROCESSOR\MEDIA CAPTURE USING CAPTURE DEVICE SAMPLE\C# AND C++\X64\DEBUG\GRAYSCALE\GRAYSCALETRANSFORM.ILK
C:\CODE\POTS\P003_LIVEVIDEOPROCESSOR\P003_LIVEVIDEOPROCESSOR\MEDIA CAPTURE USING CAPTURE DEVICE SAMPLE\C# AND C++\X64\DEBUG\GRAYSCALE\GRAYSCALETRANSFORM.DLL
C:\CODE\POTS\P003_LIVEVIDEOPROCESSOR\P003_LIVEVIDEOPROCESSOR\MEDIA CAPTURE USING CAPTURE DEVICE SAMPLE\C# AND C++\X64\DEBUG\GRAYSCALE\GRAYSCALETRANSFORM.PDB
