^C:\Code\Pots\P003_LiveVideoProcessor\P003_LiveVideoProcessor\Media capture using capture device sample\C# and C++\MediaExtensions\Grayscale\Grayscale.vcxproj
C:\Code\Pots\P003_LiveVideoProcessor\P003_LiveVideoProcessor\Media capture using capture device sample\C# and C++\MediaExtensions\Grayscale\ARM\Debug\priconfig.xml
C:\Code\Pots\P003_LiveVideoProcessor\P003_LiveVideoProcessor\Media capture using capture device sample\C# and C++\MediaExtensions\Grayscale\ARM\Debug\layout.resfiles
C:\Code\Pots\P003_LiveVideoProcessor\P003_LiveVideoProcessor\Media capture using capture device sample\C# and C++\MediaExtensions\Grayscale\ARM\Debug\resources.resfiles
C:\Code\Pots\P003_LiveVideoProcessor\P003_LiveVideoProcessor\Media capture using capture device sample\C# and C++\MediaExtensions\Grayscale\ARM\Debug\pri.resfiles
