^C:\CODE\POTS\P003_LIVEVIDEOPROCESSOR\P003_LIVEVIDEOPROCESSOR\MEDIA CAPTURE USING CAPTURE DEVICE SAMPLE\C# AND C++\MEDIAEXTENSIONS\GRAYSCALE\GRAYSCALETRANSFORM.IDL
C:\CODE\POTS\P003_LIVEVIDEOPROCESSOR\P003_LIVEVIDEOPROCESSOR\MEDIA CAPTURE USING CAPTURE DEVICE SAMPLE\C# AND C++\MEDIAEXTENSIONS\GRAYSCALE\GRAYSCALETRANSFORM.H
C:\CODE\POTS\P003_LIVEVIDEOPROCESSOR\P003_LIVEVIDEOPROCESSOR\MEDIA CAPTURE USING CAPTURE DEVICE SAMPLE\C# AND C++\MEDIAEXTENSIONS\GRAYSCALE\GRAYSCALETRANSFORM.WINMD
